{
  "dependencies": {
    "Microsoft.NETCore.App": {
      "version": "1.0.0",
      "type": "platform"
    },
    "Microsoft.ApplicationInsights.AspNetCore": "1.0.0",
    "Microsoft.AspNetCore.Mvc": "1.0.0",
    "Microsoft.AspNetCore.Server.IISIntegration": "1.0.0",
    "Microsoft.AspNetCore.Server.Kestrel": "1.0.0",
    "Microsoft.Extensions.Configuration.EnvironmentVariables": "1.0.0",
    "Microsoft.Extensions.Configuration.FileExtensions": "1.0.0",
    "Microsoft.Extensions.Configuration.Json": "1.0.0",
    "Microsoft.Extensions.Logging": "1.0.0",
    "Microsoft.Extensions.Logging.Console": "1.0.0",
    "Microsoft.Extensions.Logging.Debug": "1.0.0",
    "Digipolis.FormEngine.Model": "1.0.0-*",
    "Digipolis.FormEngine.Domain": "1.0.0-*",
    "Digipolis.FormEngine.Common": "1.0.0-*",
    "Autofac.Extensions.DependencyInjection": "4.0.0",
    "Swashbuckle": "6.0.0-beta902",
    //"Swashbuckle.Swagger": "6.0.0-beta901",
    "Microsoft.Extensions.Options.ConfigurationExtensions": "1.0.0",
    "Microsoft.AspNetCore.Cors": "1.0.0",
    "NLog.Extensions.Logging": "1.0.0-rtm-alpha4",
    "Microsoft.AspNetCore.Diagnostics": "1.0.0",
    "Narato.Common": "2.0.2"
  },
  "tools": {
    "Microsoft.AspNetCore.Server.IISIntegration.Tools": {
      "version": "1.0.0-preview2-final",
      "imports": "portable-net45+win8+dnxcore50"
    }
  },
  "frameworks": {
    "netcoreapp1.0": {
      "imports": [
        "dotnet5.6",
        "dnxcore50",
        "portable-net45+win8"
      ]
    }
  },
  "buildOptions": {
    "emitEntryPoint": true,
    "preserveCompilationContext": true,
    "debugType": "portable",
    "xmlDoc": true
  },
  "runtimeOptions": {
    "gcServer": true
  },
  "publishOptions": {
    "include": [
      "wwwroot",
      "Views",
      "appsettings.json",
      "web.config",
      "docker-compose.yml",
      "docker-compose.yml.debug",
      "dockerfile.debug",
      "dockerfile",
      "config.json",
      "config.json.dist",
      "nlog.config"
    ]
  },
  "scripts": {
    "postpublish": [
      "dotnet publish-iis --publish-folder %publish:OutputPath% --framework %publish:FullTargetFramework%"
    ]
  }
}