{
  "version": "1.0.0-*",

  "dependencies": {
    "Microsoft.NETCore.App": {
      "version": "1.0.0",
      "type": "platform"
    },
    "Digipolis.FormEngine.Common": "1.0.0-*",
    "NETStandard.Library": "1.6.0",
    "System.ComponentModel.Annotations": "4.1.0"
  },

  "frameworks": {
     "netcoreapp1.0": {
      "imports": [
        "dotnet5.6",
        "dnxcore50",
        "portable-net45+win8"
      ]
    }
  }
}
